Assignment 2
…
How serious is BPD to an infants life?

Brief statistical procedures that may help answer the four main statistical questions include t-test, chi-square tests, and multiple regression techniques. Initial descriptive statistics must be conducted to examine the data and analyze the appropriate sample.

First we read in the data set.

getwd()

## [1] "D:/402A-spring2021"

BPD = read_dta("bpd.dta")
BPD_tble <- as_tibble(BPD) %>% print()

## # A tibble: 299 x 24
##      pid   sex   bxy  agar  gage   bwt  rage  vage  idur  vdur   lo2   mo2   ho2
##    <dbl> <dbl> <dbl> <dbl> <dbl> <dbl> <dbl> <dbl> <dbl> <dbl> <dbl> <dbl> <dbl>
##  1     1     0    62    NA   370  2948     0    30    88    77   102    89     0
##  2     2     0    62    NA   360  2480     3    20   209   204     7   233     1
##  3     3     1    64    NA   310  1446     0     7    39    38     0     4    41
##  4     4     1    64    NA   300  2353     0     9    49    49     8    37    13
##  5     5     1    64     8   400  3203    10    58    41    40    79    26    31
##  6     6     1    64    NA   320  1860     0     1   653   644     0   625   156
##  7     7     1    64     9    NA  1701     5    49    40    40     0    12    79
##  8     8     0    64    NA   310  1417     5    17   103   102     0     3   119
##  9     9     1    64    10   350  2438     3    27    64    61   115   136    65
## 10    10     1    64     8   360  2020     0    28   147   146   438   416   435
## # ... with 289 more rows, and 11 more variables: cens <dbl>, surv <dbl>,
## #   rds <dbl>, bpd <dbl>, brmu <dbl>, puin <dbl>, hyme <dbl>, alin <dbl>,
## #   emph <dbl>, lbpd <dbl>, hema <dbl>
…
print(BPD_tble, width = Inf)

## # A tibble: 299 x 24
##      pid   sex   bxy  agar  gage   bwt  rage  vage  idur  vdur   lo2   mo2   ho2
##    <dbl> <dbl> <dbl> <dbl> <dbl> <dbl> <dbl> <dbl> <dbl> <dbl> <dbl> <dbl> <dbl>
##  1     1     0    62    NA   370  2948     0    30    88    77   102    89     0
##  2     2     0    62    NA   360  2480     3    20   209   204     7   233     1
##  3     3     1    64    NA   310  1446     0     7    39    38     0     4    41
##  4     4     1    64    NA   300  2353     0     9    49    49     8    37    13
##  5     5     1    64     8   400  3203    10    58    41    40    79    26    31
##  6     6     1    64    NA   320  1860     0     1   653   644     0   625   156
##  7     7     1    64     9    NA  1701     5    49    40    40     0    12    79
##  8     8     0    64    NA   310  1417     5    17   103   102     0     3   119
##  9     9     1    64    10   350  2438     3    27    64    61   115   136    65
## 10    10     1    64     8   360  2020     0    28   147   146   438   416   435
##     cens  surv   rds   bpd  brmu  puin  hyme  alin  emph  lbpd  hema
##    <dbl> <dbl> <dbl> <dbl> <dbl> <dbl> <dbl> <dbl> <dbl> <dbl> <dbl>
##  1     1 99999     0    10    NA    NA    NA    NA    NA    NA    NA
##  2     0   240     1    10     3     2     4     2     3     3     0
##  3     0    45     3    10     1     1     2     1     1     1     0
##  4     0    58     5    10     2     1     4     1     1     2     0
##  5     1 94632     1    10    NA    NA    NA    NA    NA    NA    NA
##  6     0   796     2    30     4     4     0     3     4     4     0
##  7     0    91     2    10     3     1     3     1     3     2     0
##  8     0   122     5    20     1     1     3     2     1     2     2
##  9     1 92568     2    10    NA    NA    NA    NA    NA    NA    NA
## 10     1 92376     3    40    NA    NA    NA    NA    NA    NA    NA
## # ... with 289 more rows

#create a categorical variable for gender
BPD_tble %>% mutate(gender = ifelse(BPD_tble$sex == 1, "male", "female")) 

## # A tibble: 299 x 25
##      pid   sex   bxy  agar  gage   bwt  rage  vage  idur  vdur   lo2   mo2   ho2
##    <dbl> <dbl> <dbl> <dbl> <dbl> <dbl> <dbl> <dbl> <dbl> <dbl> <dbl> <dbl> <dbl>
##  1     1     0    62    NA   370  2948     0    30    88    77   102    89     0
##  2     2     0    62    NA   360  2480     3    20   209   204     7   233     1
##  3     3     1    64    NA   310  1446     0     7    39    38     0     4    41
##  4     4     1    64    NA   300  2353     0     9    49    49     8    37    13
##  5     5     1    64     8   400  3203    10    58    41    40    79    26    31
##  6     6     1    64    NA   320  1860     0     1   653   644     0   625   156
##  7     7     1    64     9    NA  1701     5    49    40    40     0    12    79
##  8     8     0    64    NA   310  1417     5    17   103   102     0     3   119
##  9     9     1    64    10   350  2438     3    27    64    61   115   136    65
## 10    10     1    64     8   360  2020     0    28   147   146   438   416   435
## # ... with 289 more rows, and 12 more variables: cens <dbl>, surv <dbl>,
## #   rds <dbl>, bpd <dbl>, brmu <dbl>, puin <dbl>, hyme <dbl>, alin <dbl>,
## #   emph <dbl>, lbpd <dbl>, hema <dbl>, gender <chr>
…
